^C:\USERS\VANTUS\DESKTOP\ПРОГАНИЕ\5.TERM_AND_POLYNOMIAL\5.TERM_AND_POLYNOMIAL\MAIN.CPP|C:\USERS\VANTUS\DESKTOP\ПРОГАНИЕ\5.TERM_AND_POLYNOMIAL\5.TERM_AND_POLYNOMIAL\MYSTACK.CPP|C:\USERS\VANTUS\DESKTOP\ПРОГАНИЕ\5.TERM_AND_POLYNOMIAL\5.TERM_AND_POLYNOMIAL\MYSTR.CPP|C:\USERS\VANTUS\DESKTOP\ПРОГАНИЕ\5.TERM_AND_POLYNOMIAL\5.TERM_AND_POLYNOMIAL\POLYNOMIAL.CPP|C:\USERS\VANTUS\DESKTOP\ПРОГАНИЕ\5.TERM_AND_POLYNOMIAL\5.TERM_AND_POLYNOMIAL\TERM.CPP
C:\USERS\VANTUS\DESKTOP\прогание\5.TERM_AND_POLYNOMIAL\5.TERM_AND_POLYNOMIAL\DEBUG\VC142.PDB
C:\USERS\VANTUS\DESKTOP\прогание\5.TERM_AND_POLYNOMIAL\5.TERM_AND_POLYNOMIAL\DEBUG\VC142.IDB
C:\USERS\VANTUS\DESKTOP\прогание\5.TERM_AND_POLYNOMIAL\5.TERM_AND_POLYNOMIAL\DEBUG\TERM.OBJ
C:\USERS\VANTUS\DESKTOP\прогание\5.TERM_AND_POLYNOMIAL\5.TERM_AND_POLYNOMIAL\DEBUG\POLYNOMIAL.OBJ
C:\USERS\VANTUS\DESKTOP\прогание\5.TERM_AND_POLYNOMIAL\5.TERM_AND_POLYNOMIAL\DEBUG\MYSTR.OBJ
C:\USERS\VANTUS\DESKTOP\прогание\5.TERM_AND_POLYNOMIAL\5.TERM_AND_POLYNOMIAL\DEBUG\MYSTACK.OBJ
C:\USERS\VANTUS\DESKTOP\прогание\5.TERM_AND_POLYNOMIAL\5.TERM_AND_POLYNOMIAL\DEBUG\MAIN.OBJ
^C:\USERS\VANTUS\DESKTOP\ПРОГАНИЕ\5.TERM_AND_POLYNOMIAL\5.TERM_AND_POLYNOMIAL\MAIN.CPP
C:\USERS\VANTUS\DESKTOP\ПРОГАНИЕ\5.TERM_AND_POLYNOMIAL\5.TERM_AND_POLYNOMIAL\DEBUG\VC142.PDB
^C:\USERS\VANTUS\DESKTOP\ПРОГАНИЕ\5.TERM_AND_POLYNOMIAL\5.TERM_AND_POLYNOMIAL\MYSTACK.CPP
C:\USERS\VANTUS\DESKTOP\ПРОГАНИЕ\5.TERM_AND_POLYNOMIAL\5.TERM_AND_POLYNOMIAL\DEBUG\VC142.PDB
^C:\USERS\VANTUS\DESKTOP\ПРОГАНИЕ\5.TERM_AND_POLYNOMIAL\5.TERM_AND_POLYNOMIAL\MYSTR.CPP
C:\USERS\VANTUS\DESKTOP\ПРОГАНИЕ\5.TERM_AND_POLYNOMIAL\5.TERM_AND_POLYNOMIAL\DEBUG\VC142.PDB
^C:\USERS\VANTUS\DESKTOP\ПРОГАНИЕ\5.TERM_AND_POLYNOMIAL\5.TERM_AND_POLYNOMIAL\POLYNOMIAL.CPP
C:\USERS\VANTUS\DESKTOP\ПРОГАНИЕ\5.TERM_AND_POLYNOMIAL\5.TERM_AND_POLYNOMIAL\DEBUG\VC142.PDB
^C:\USERS\VANTUS\DESKTOP\ПРОГАНИЕ\5.TERM_AND_POLYNOMIAL\5.TERM_AND_POLYNOMIAL\TERM.CPP
C:\USERS\VANTUS\DESKTOP\ПРОГАНИЕ\5.TERM_AND_POLYNOMIAL\5.TERM_AND_POLYNOMIAL\DEBUG\VC142.PDB
