^D:\PROGRAMMING\PROGRAM\C++\DZ_IVAN_KOSTNIKOV_ИУ5Ц_42Б\DZ_IVAN_KOSTNIKOV_ИУ5Ц_42Б\BOOK_LIB.CPP
/c /ZI /nologo /W3 /WX- /sdl /Od /Oy- /D _CRT_SECURE_NO_WARNINGS /D _UNICODE /D UNICODE /Gm /EHsc /RTC1 /MDd /GS /fp:precise /Zc:wchar_t /Zc:forScope /Fo"DEBUG\\" /Fd"DEBUG\VC110.PDB" /Gd /TP /analyze- D:\PROGRAMMING\PROGRAM\C++\DZ_IVAN_KOSTNIKOV_ИУ5Ц_42Б\DZ_IVAN_KOSTNIKOV_ИУ5Ц_42Б\BOOK_LIB.CPP
^D:\PROGRAMMING\PROGRAM\C++\DZ_IVAN_KOSTNIKOV_ИУ5Ц_42Б\DZ_IVAN_KOSTNIKOV_ИУ5Ц_42Б\MAIN.CPP
/c /ZI /nologo /W3 /WX- /sdl /Od /Oy- /D _CRT_SECURE_NO_WARNINGS /D _UNICODE /D UNICODE /Gm /EHsc /RTC1 /MDd /GS /fp:precise /Zc:wchar_t /Zc:forScope /Fo"DEBUG\\" /Fd"DEBUG\VC110.PDB" /Gd /TP /analyze- D:\PROGRAMMING\PROGRAM\C++\DZ_IVAN_KOSTNIKOV_ИУ5Ц_42Б\DZ_IVAN_KOSTNIKOV_ИУ5Ц_42Б\MAIN.CPP
^D:\PROGRAMMING\PROGRAM\C++\DZ_IVAN_KOSTNIKOV_ИУ5Ц_42Б\DZ_IVAN_KOSTNIKOV_ИУ5Ц_42Б\MYSTACK.CPP
/c /ZI /nologo /W3 /WX- /sdl /Od /Oy- /D _CRT_SECURE_NO_WARNINGS /D _UNICODE /D UNICODE /Gm /EHsc /RTC1 /MDd /GS /fp:precise /Zc:wchar_t /Zc:forScope /Fo"DEBUG\\" /Fd"DEBUG\VC110.PDB" /Gd /TP /analyze- D:\PROGRAMMING\PROGRAM\C++\DZ_IVAN_KOSTNIKOV_ИУ5Ц_42Б\DZ_IVAN_KOSTNIKOV_ИУ5Ц_42Б\MYSTACK.CPP
^D:\PROGRAMMING\PROGRAM\C++\DZ_IVAN_KOSTNIKOV_ИУ5Ц_42Б\DZ_IVAN_KOSTNIKOV_ИУ5Ц_42Б\MYSTR.CPP
/c /ZI /nologo /W3 /WX- /sdl /Od /Oy- /D _CRT_SECURE_NO_WARNINGS /D _UNICODE /D UNICODE /Gm /EHsc /RTC1 /MDd /GS /fp:precise /Zc:wchar_t /Zc:forScope /Fo"DEBUG\\" /Fd"DEBUG\VC110.PDB" /Gd /TP /analyze- D:\PROGRAMMING\PROGRAM\C++\DZ_IVAN_KOSTNIKOV_ИУ5Ц_42Б\DZ_IVAN_KOSTNIKOV_ИУ5Ц_42Б\MYSTR.CPP
