^D:\PROGRAMMING\PROGRAM\C++\4.2.MYSET_VS_2012_V2\MYSET_VS_2012_V2\MYSET.CPP
/c /ID:\Programming\Program\C++\4.2.MySet_vs_2012_v2\packages\nupengl.core.0.1.0.1\build\native\../..//build/native/include/ /ZI /nologo /W3 /WX- /sdl /Od /Oy- /D _MBCS /Gm /EHsc /RTC1 /MDd /GS /fp:precise /Zc:wchar_t /Zc:forScope /Fo"DEBUG\\" /Fd"DEBUG\VC110.PDB" /Gd /TP /analyze- D:\PROGRAMMING\PROGRAM\C++\4.2.MYSET_VS_2012_V2\MYSET_VS_2012_V2\MYSET.CPP
^D:\PROGRAMMING\PROGRAM\C++\4.2.MYSET_VS_2012_V2\MYSET_VS_2012_V2\MYSET_MAIN.CPP
/c /ID:\Programming\Program\C++\4.2.MySet_vs_2012_v2\packages\nupengl.core.0.1.0.1\build\native\../..//build/native/include/ /ZI /nologo /W3 /WX- /sdl /Od /Oy- /D _MBCS /Gm /EHsc /RTC1 /MDd /GS /fp:precise /Zc:wchar_t /Zc:forScope /Fo"DEBUG\\" /Fd"DEBUG\VC110.PDB" /Gd /TP /analyze- D:\PROGRAMMING\PROGRAM\C++\4.2.MYSET_VS_2012_V2\MYSET_VS_2012_V2\MYSET_MAIN.CPP
^D:\PROGRAMMING\PROGRAM\C++\4.2.MYSET_VS_2012_V2\MYSET_VS_2012_V2\MYVECTOR.CPP
/c /ID:\Programming\Program\C++\4.2.MySet_vs_2012_v2\packages\nupengl.core.0.1.0.1\build\native\../..//build/native/include/ /ZI /nologo /W3 /WX- /sdl /Od /Oy- /D _MBCS /Gm /EHsc /RTC1 /MDd /GS /fp:precise /Zc:wchar_t /Zc:forScope /Fo"DEBUG\\" /Fd"DEBUG\VC110.PDB" /Gd /TP /analyze- D:\PROGRAMMING\PROGRAM\C++\4.2.MYSET_VS_2012_V2\MYSET_VS_2012_V2\MYVECTOR.CPP
