^C:\USERS\VANTUS\DESKTOP\ПРОГАНИЕ\DZ_IVAN_KOSTNIKOV_ИУ5Ц_42Б\DZ_IVAN_KOSTNIKOV_ИУ5Ц_42Б\BOOK_LIB.CPP
/c /ZI /JMC /nologo /W3 /WX- /diagnostics:column /sdl /Od /Oy- /D _CRT_SECURE_NO_WARNINGS /D _UNICODE /D UNICODE /Gm- /EHsc /RTC1 /MDd /GS /fp:precise /Zc:wchar_t /Zc:forScope /Zc:inline /Fo"DEBUG\\" /Fd"DEBUG\VC142.PDB" /Gd /TP /analyze- /FC C:\USERS\VANTUS\DESKTOP\ПРОГАНИЕ\DZ_IVAN_KOSTNIKOV_ИУ5Ц_42Б\DZ_IVAN_KOSTNIKOV_ИУ5Ц_42Б\BOOK_LIB.CPP
^C:\USERS\VANTUS\DESKTOP\ПРОГАНИЕ\DZ_IVAN_KOSTNIKOV_ИУ5Ц_42Б\DZ_IVAN_KOSTNIKOV_ИУ5Ц_42Б\MAIN.CPP
/c /ZI /JMC /nologo /W3 /WX- /diagnostics:column /sdl /Od /Oy- /D _CRT_SECURE_NO_WARNINGS /D _UNICODE /D UNICODE /Gm- /EHsc /RTC1 /MDd /GS /fp:precise /Zc:wchar_t /Zc:forScope /Zc:inline /Fo"DEBUG\\" /Fd"DEBUG\VC142.PDB" /Gd /TP /analyze- /FC C:\USERS\VANTUS\DESKTOP\ПРОГАНИЕ\DZ_IVAN_KOSTNIKOV_ИУ5Ц_42Б\DZ_IVAN_KOSTNIKOV_ИУ5Ц_42Б\MAIN.CPP
^C:\USERS\VANTUS\DESKTOP\ПРОГАНИЕ\DZ_IVAN_KOSTNIKOV_ИУ5Ц_42Б\DZ_IVAN_KOSTNIKOV_ИУ5Ц_42Б\MYSTACK.CPP
/c /ZI /JMC /nologo /W3 /WX- /diagnostics:column /sdl /Od /Oy- /D _CRT_SECURE_NO_WARNINGS /D _UNICODE /D UNICODE /Gm- /EHsc /RTC1 /MDd /GS /fp:precise /Zc:wchar_t /Zc:forScope /Zc:inline /Fo"DEBUG\\" /Fd"DEBUG\VC142.PDB" /Gd /TP /analyze- /FC C:\USERS\VANTUS\DESKTOP\ПРОГАНИЕ\DZ_IVAN_KOSTNIKOV_ИУ5Ц_42Б\DZ_IVAN_KOSTNIKOV_ИУ5Ц_42Б\MYSTACK.CPP
^C:\USERS\VANTUS\DESKTOP\ПРОГАНИЕ\DZ_IVAN_KOSTNIKOV_ИУ5Ц_42Б\DZ_IVAN_KOSTNIKOV_ИУ5Ц_42Б\MYSTR.CPP
/c /ZI /JMC /nologo /W3 /WX- /diagnostics:column /sdl /Od /Oy- /D _CRT_SECURE_NO_WARNINGS /D _UNICODE /D UNICODE /Gm- /EHsc /RTC1 /MDd /GS /fp:precise /Zc:wchar_t /Zc:forScope /Zc:inline /Fo"DEBUG\\" /Fd"DEBUG\VC142.PDB" /Gd /TP /analyze- /FC C:\USERS\VANTUS\DESKTOP\ПРОГАНИЕ\DZ_IVAN_KOSTNIKOV_ИУ5Ц_42Б\DZ_IVAN_KOSTNIKOV_ИУ5Ц_42Б\MYSTR.CPP
