^C:\USERS\VANTUS\DESKTOP\ПРОГАНИЕ\4.2.MYSET_VS_2012_V2\MYSET_VS_2012_V2\MYSET.CPP
/c /I"C:\USERS\VANTUS\DESKTOP\ПРОГАНИЕ\4.2.MYSET_VS_2012_V2\PACKAGES\NUPENGL.CORE.0.1.0.1\BUILD\NATIVE\../..//BUILD/NATIVE/INCLUDE/" /ZI /JMC /nologo /W3 /WX- /diagnostics:column /sdl /Od /Oy- /D _MBCS /Gm- /EHsc /RTC1 /MDd /GS /fp:precise /Zc:wchar_t /Zc:forScope /Zc:inline /Fo"DEBUG\\" /Fd"DEBUG\VC142.PDB" /Gd /TP /analyze- /FC C:\USERS\VANTUS\DESKTOP\ПРОГАНИЕ\4.2.MYSET_VS_2012_V2\MYSET_VS_2012_V2\MYSET.CPP
^C:\USERS\VANTUS\DESKTOP\ПРОГАНИЕ\4.2.MYSET_VS_2012_V2\MYSET_VS_2012_V2\MYVECTOR.CPP
/c /I"C:\USERS\VANTUS\DESKTOP\ПРОГАНИЕ\4.2.MYSET_VS_2012_V2\PACKAGES\NUPENGL.CORE.0.1.0.1\BUILD\NATIVE\../..//BUILD/NATIVE/INCLUDE/" /ZI /JMC /nologo /W3 /WX- /diagnostics:column /sdl /Od /Oy- /D _MBCS /Gm- /EHsc /RTC1 /MDd /GS /fp:precise /Zc:wchar_t /Zc:forScope /Zc:inline /Fo"DEBUG\\" /Fd"DEBUG\VC142.PDB" /Gd /TP /analyze- /FC C:\USERS\VANTUS\DESKTOP\ПРОГАНИЕ\4.2.MYSET_VS_2012_V2\MYSET_VS_2012_V2\MYVECTOR.CPP
^C:\USERS\VANTUS\DESKTOP\ПРОГАНИЕ\4.2.MYSET_VS_2012_V2\MYSET_VS_2012_V2\MYSET_MAIN.CPP
/c /I"C:\USERS\VANTUS\DESKTOP\ПРОГАНИЕ\4.2.MYSET_VS_2012_V2\PACKAGES\NUPENGL.CORE.0.1.0.1\BUILD\NATIVE\../..//BUILD/NATIVE/INCLUDE/" /ZI /JMC /nologo /W3 /WX- /diagnostics:column /sdl /Od /Oy- /D _MBCS /Gm- /EHsc /RTC1 /MDd /GS /fp:precise /Zc:wchar_t /Zc:forScope /Zc:inline /Fo"DEBUG\\" /Fd"DEBUG\VC142.PDB" /Gd /TP /analyze- /FC C:\USERS\VANTUS\DESKTOP\ПРОГАНИЕ\4.2.MYSET_VS_2012_V2\MYSET_VS_2012_V2\MYSET_MAIN.CPP
