^C:\USERS\VANTUS\DESKTOP\ПРОГАНИЕ\4.2.MYSET_VS_2012_V2\MYSET_VS_2012_V2\DEBUG\MYSET.OBJ|C:\USERS\VANTUS\DESKTOP\ПРОГАНИЕ\4.2.MYSET_VS_2012_V2\MYSET_VS_2012_V2\DEBUG\MYSET_MAIN.OBJ|C:\USERS\VANTUS\DESKTOP\ПРОГАНИЕ\4.2.MYSET_VS_2012_V2\MYSET_VS_2012_V2\DEBUG\MYVECTOR.OBJ
/OUT:"C:\USERS\VANTUS\DESKTOP\ПРОГАНИЕ\4.2.MYSET_VS_2012_V2\DEBUG\MYSET_VS_2012_V2.EXE" /INCREMENTAL /NOLOGO "C:\USERS\VANTUS\DESKTOP\ПРОГАНИЕ\4.2.MYSET_VS_2012_V2\PACKAGES\NUPENGL.CORE.0.1.0.1\BUILD\NATIVE\../..//BUILD/NATIVE/LIB/WIN32\GLEW32.LIB" "C:\USERS\VANTUS\DESKTOP\ПРОГАНИЕ\4.2.MYSET_VS_2012_V2\PACKAGES\NUPENGL.CORE.0.1.0.1\BUILD\NATIVE\../..//BUILD/NATIVE/LIB/WIN32\GLFW3DLL.LIB" "C:\USERS\VANTUS\DESKTOP\ПРОГАНИЕ\4.2.MYSET_VS_2012_V2\PACKAGES\NUPENGL.CORE.0.1.0.1\BUILD\NATIVE\../..//BUILD/NATIVE/LIB/WIN32\FREEGLUT.LIB" KERNEL32.LIB USER32.LIB GDI32.LIB WINSPOOL.LIB COMDLG32.LIB ADVAPI32.LIB SHELL32.LIB OLE32.LIB OLEAUT32.LIB UUID.LIB ODBC32.LIB ODBCCP32.LIB /MANIFEST /MANIFESTUAC:"level='asInvoker' uiAccess='false'" /manifest:embed /DEBUG:FASTLINK /PDB:"C:\USERS\VANTUS\DESKTOP\ПРОГАНИЕ\4.2.MYSET_VS_2012_V2\DEBUG\MYSET_VS_2012_V2.PDB" /TLBID:1 /DYNAMICBASE /NXCOMPAT /IMPLIB:"C:\USERS\VANTUS\DESKTOP\ПРОГАНИЕ\4.2.MYSET_VS_2012_V2\DEBUG\MYSET_VS_2012_V2.LIB" /MACHINE:X86 DEBUG\MYSET.OBJ
DEBUG\MYSET_MAIN.OBJ
DEBUG\MYVECTOR.OBJ
