^D:\PROGRAMMING\PROGRAM\C++\DECIMAL\DECIMAL\DEBUG\DECIMAL.OBJ|D:\PROGRAMMING\PROGRAM\C++\DECIMAL\DECIMAL\DEBUG\DECIMAL_MAIN.OBJ
/OUT:"D:\PROGRAMMING\PROGRAM\C++\DECIMAL\DEBUG\DECIMAL.EXE" /INCREMENTAL /NOLOGO kernel32.lib user32.lib gdi32.lib winspool.lib comdlg32.lib advapi32.lib shell32.lib ole32.lib oleaut32.lib uuid.lib odbc32.lib odbccp32.lib /MANIFEST /MANIFESTUAC:"level='asInvoker' uiAccess='false'" /manifest:embed /DEBUG /PDB:"D:\PROGRAMMING\PROGRAM\C++\DECIMAL\DEBUG\DECIMAL.PDB" /TLBID:1 /DYNAMICBASE /NXCOMPAT /IMPLIB:"D:\PROGRAMMING\PROGRAM\C++\DECIMAL\DEBUG\DECIMAL.LIB" /MACHINE:X86 DEBUG\DECIMAL.OBJDEBUG\DECIMAL_MAIN.OBJ
^D:\TEMP\KOSTNIKOV\DECIMAL\DECIMAL\DEBUG\DECIMAL.OBJ|D:\TEMP\KOSTNIKOV\DECIMAL\DECIMAL\DEBUG\DECIMAL_MAIN.OBJ
/OUT:"D:\TEMP\KOSTNIKOV\DECIMAL\DEBUG\DECIMAL.EXE" /INCREMENTAL /NOLOGO kernel32.lib user32.lib gdi32.lib winspool.lib comdlg32.lib advapi32.lib shell32.lib ole32.lib oleaut32.lib uuid.lib odbc32.lib odbccp32.lib /MANIFEST /MANIFESTUAC:"level='asInvoker' uiAccess='false'" /manifest:embed /DEBUG /PDB:"D:\TEMP\KOSTNIKOV\DECIMAL\DEBUG\DECIMAL.PDB" /TLBID:1 /DYNAMICBASE /NXCOMPAT /IMPLIB:"D:\TEMP\KOSTNIKOV\DECIMAL\DEBUG\DECIMAL.LIB" /MACHINE:X86 DEBUG\DECIMAL.OBJDEBUG\DECIMAL_MAIN.OBJ
^F:\1.ПРОГРАММЫ\DECIMAL\DECIMAL\DEBUG\DECIMAL.OBJ|F:\1.ПРОГРАММЫ\DECIMAL\DECIMAL\DEBUG\DECIMAL_MAIN.OBJ
/OUT:"F:\1.ПРОГРАММЫ\DECIMAL\DEBUG\DECIMAL.EXE" /INCREMENTAL /NOLOGO kernel32.lib user32.lib gdi32.lib winspool.lib comdlg32.lib advapi32.lib shell32.lib ole32.lib oleaut32.lib uuid.lib odbc32.lib odbccp32.lib /MANIFEST /MANIFESTUAC:"level='asInvoker' uiAccess='false'" /manifest:embed /DEBUG /PDB:"F:\1.ПРОГРАММЫ\DECIMAL\DEBUG\DECIMAL.PDB" /TLBID:1 /DYNAMICBASE /NXCOMPAT /IMPLIB:"F:\1.ПРОГРАММЫ\DECIMAL\DEBUG\DECIMAL.LIB" /MACHINE:X86 DEBUG\DECIMAL.OBJDEBUG\DECIMAL_MAIN.OBJ
^D:\PROGRAMMING\PROGRAM\C++\2.DECIMAL\DECIMAL\DEBUG\DECIMAL.OBJ|D:\PROGRAMMING\PROGRAM\C++\2.DECIMAL\DECIMAL\DEBUG\DECIMAL_MAIN.OBJ
/OUT:"D:\PROGRAMMING\PROGRAM\C++\2.DECIMAL\DEBUG\DECIMAL.EXE" /INCREMENTAL /NOLOGO kernel32.lib user32.lib gdi32.lib winspool.lib comdlg32.lib advapi32.lib shell32.lib ole32.lib oleaut32.lib uuid.lib odbc32.lib odbccp32.lib /MANIFEST /MANIFESTUAC:"level='asInvoker' uiAccess='false'" /manifest:embed /DEBUG /PDB:"D:\PROGRAMMING\PROGRAM\C++\2.DECIMAL\DEBUG\DECIMAL.PDB" /TLBID:1 /DYNAMICBASE /NXCOMPAT /IMPLIB:"D:\PROGRAMMING\PROGRAM\C++\2.DECIMAL\DEBUG\DECIMAL.LIB" /MACHINE:X86 DEBUG\DECIMAL.OBJDEBUG\DECIMAL_MAIN.OBJ
