^C:\USERS\VANTUS\DESKTOP\ПРОГАНИЕ\3.MYSTACK_VS_2012\MYSTACK_VS_2012\DEBUG\MAIN_STACK.OBJ|C:\USERS\VANTUS\DESKTOP\ПРОГАНИЕ\3.MYSTACK_VS_2012\MYSTACK_VS_2012\DEBUG\MYSTACK.OBJ
C:\USERS\VANTUS\DESKTOP\прогание\3.MYSTACK_VS_2012\DEBUG\MYSTACK_VS_2012.EXE
C:\USERS\VANTUS\DESKTOP\прогание\3.MYSTACK_VS_2012\DEBUG\MYSTACK_VS_2012.ILK
C:\USERS\VANTUS\DESKTOP\ПРОГАНИЕ\3.MYSTACK_VS_2012\DEBUG\MYSTACK_VS_2012.PDB
