^D:\PROGRAMMING\PROGRAM\C++\5.TERM_AND_POLYNOMIAL\5.TERM_AND_POLYNOMIAL\RELEASE\MAIN.OBJ|D:\PROGRAMMING\PROGRAM\C++\5.TERM_AND_POLYNOMIAL\5.TERM_AND_POLYNOMIAL\RELEASE\MYSTACK.OBJ|D:\PROGRAMMING\PROGRAM\C++\5.TERM_AND_POLYNOMIAL\5.TERM_AND_POLYNOMIAL\RELEASE\MYSTR.OBJ|D:\PROGRAMMING\PROGRAM\C++\5.TERM_AND_POLYNOMIAL\5.TERM_AND_POLYNOMIAL\RELEASE\POLYNOMIAL.OBJ|D:\PROGRAMMING\PROGRAM\C++\5.TERM_AND_POLYNOMIAL\5.TERM_AND_POLYNOMIAL\RELEASE\TERM.OBJ
D:\PROGRAMMING\PROGRAM\C++\5.TERM_AND_POLYNOMIAL\RELEASE\5.TERM_AND_POLYNOMIAL.EXE
D:\PROGRAMMING\PROGRAM\C++\5.TERM_AND_POLYNOMIAL\RELEASE\5.TERM_AND_POLYNOMIAL.PDB
